GFORTRAN module version '10' created from model.f90
MD5:4cc082464c335188455cafb51fb82cac -- If you edit this, you'll get what you deserve.

(() () () () () () () () () () () () () () () () () () () () () () () ()
() () ())

()

()

()

()

()

(2 'fingerprint_props' 'fingerprint_props' '' 1 ((MODULE UNKNOWN-INTENT
UNKNOWN-PROC UNKNOWN UNKNOWN 0 0) (UNKNOWN 0 0 0 0 UNKNOWN ()) 0 0 () ()
0 () () () 0 0)
3 'num_charge_fps_of_elements' 'fingerprint_props' '' 1 ((VARIABLE
UNKNOWN-INTENT UNKNOWN-PROC UNKNOWN IMPLICIT-SAVE 0 0 ALLOCATABLE
DIMENSION) (INTEGER 4 0 0 0 INTEGER ()) 0 0 () (1 0 DEFERRED () ()) 0 ()
() () 0 0)
4 'num_fingerprints_of_elements' 'fingerprint_props' '' 1 ((VARIABLE
UNKNOWN-INTENT UNKNOWN-PROC UNKNOWN IMPLICIT-SAVE 0 0 ALLOCATABLE
DIMENSION) (INTEGER 4 0 0 0 INTEGER ()) 0 0 () (1 0 DEFERRED () ()) 0 ()
() () 0 0)
5 'raveled_charge_fpprimes' 'fingerprint_props' '' 1 ((VARIABLE
UNKNOWN-INTENT UNKNOWN-PROC UNKNOWN IMPLICIT-SAVE 0 0 ALLOCATABLE
DIMENSION) (REAL 8 0 0 0 REAL ()) 0 0 () (2 0 DEFERRED () () () ()) 0 ()
() () 0 0)
6 'raveled_charge_fps' 'fingerprint_props' '' 1 ((VARIABLE
UNKNOWN-INTENT UNKNOWN-PROC UNKNOWN IMPLICIT-SAVE 0 0 ALLOCATABLE
DIMENSION) (REAL 8 0 0 0 REAL ()) 0 0 () (2 0 DEFERRED () () () ()) 0 ()
() () 0 0)
7 'raveled_fingerprintprimes' 'fingerprint_props' '' 1 ((VARIABLE
UNKNOWN-INTENT UNKNOWN-PROC UNKNOWN IMPLICIT-SAVE 0 0 ALLOCATABLE
DIMENSION) (REAL 8 0 0 0 REAL ()) 0 0 () (2 0 DEFERRED () () () ()) 0 ()
() () 0 0)
8 'raveled_fingerprints' 'fingerprint_props' '' 1 ((VARIABLE
UNKNOWN-INTENT UNKNOWN-PROC UNKNOWN IMPLICIT-SAVE 0 0 ALLOCATABLE
DIMENSION) (REAL 8 0 0 0 REAL ()) 0 0 () (2 0 DEFERRED () () () ()) 0 ()
() () 0 0)
)

('fingerprint_props' 0 2 'num_charge_fps_of_elements' 0 3
'num_fingerprints_of_elements' 0 4 'raveled_charge_fpprimes' 0 5
'raveled_charge_fps' 0 6 'raveled_fingerprintprimes' 0 7
'raveled_fingerprints' 0 8)
