GFORTRAN module version '10' created from model.f90
MD5:7ab71bd8248e07b5b16c3093bd9339d8 -- If you edit this, you'll get what you deserve.

(() () () () () () () () () () () () () () () () () () () () () () () ()
() () ())

()

()

()

()

()

(2 'actual_charges' 'images_props' '' 1 ((VARIABLE UNKNOWN-INTENT
UNKNOWN-PROC UNKNOWN IMPLICIT-SAVE 0 0 ALLOCATABLE DIMENSION) (REAL 8 0
0 0 REAL ()) 0 0 () (1 0 DEFERRED () ()) 0 () () () 0 0)
3 'actual_energies' 'images_props' '' 1 ((VARIABLE UNKNOWN-INTENT
UNKNOWN-PROC UNKNOWN IMPLICIT-SAVE 0 0 ALLOCATABLE DIMENSION) (REAL 8 0
0 0 REAL ()) 0 0 () (1 0 DEFERRED () ()) 0 () () () 0 0)
4 'actual_forces' 'images_props' '' 1 ((VARIABLE UNKNOWN-INTENT
UNKNOWN-PROC UNKNOWN IMPLICIT-SAVE 0 0 ALLOCATABLE DIMENSION) (REAL 8 0
0 0 REAL ()) 0 0 () (2 0 DEFERRED () () () ()) 0 () () () 0 0)
5 'atomic_charges' 'images_props' '' 1 ((VARIABLE UNKNOWN-INTENT
UNKNOWN-PROC UNKNOWN IMPLICIT-SAVE 0 0 ALLOCATABLE DIMENSION) (REAL 8 0
0 0 REAL ()) 0 0 () (1 0 DEFERRED () ()) 0 () () () 0 0)
6 'atomic_numbers' 'images_props' '' 1 ((VARIABLE UNKNOWN-INTENT
UNKNOWN-PROC UNKNOWN IMPLICIT-SAVE 0 0 ALLOCATABLE DIMENSION) (INTEGER 4
0 0 0 INTEGER ()) 0 0 () (1 0 DEFERRED () ()) 0 () () () 0 0)
7 'atomic_positions' 'images_props' '' 1 ((VARIABLE UNKNOWN-INTENT
UNKNOWN-PROC UNKNOWN IMPLICIT-SAVE 0 0 ALLOCATABLE DIMENSION) (REAL 8 0
0 0 REAL ()) 0 0 () (2 0 DEFERRED () () () ()) 0 () () () 0 0)
8 'elements_numbers' 'images_props' '' 1 ((VARIABLE UNKNOWN-INTENT
UNKNOWN-PROC UNKNOWN IMPLICIT-SAVE 0 0 ALLOCATABLE DIMENSION) (INTEGER 4
0 0 0 INTEGER ()) 0 0 () (1 0 DEFERRED () ()) 0 () () () 0 0)
9 'image_weights' 'images_props' '' 1 ((VARIABLE UNKNOWN-INTENT
UNKNOWN-PROC UNKNOWN IMPLICIT-SAVE 0 0 ALLOCATABLE DIMENSION) (REAL 8 0
0 0 REAL ()) 0 0 () (1 0 DEFERRED () ()) 0 () () () 0 0)
10 'images_props' 'images_props' '' 1 ((MODULE UNKNOWN-INTENT
UNKNOWN-PROC UNKNOWN UNKNOWN 0 0) (UNKNOWN 0 0 0 0 UNKNOWN ()) 0 0 () ()
0 () () () 0 0)
11 'num_atoms' 'images_props' '' 1 ((VARIABLE UNKNOWN-INTENT
UNKNOWN-PROC UNKNOWN IMPLICIT-SAVE 0 0) (INTEGER 4 0 0 0 INTEGER ()) 0 0
() () 0 () () () 0 0)
12 'num_elements' 'images_props' '' 1 ((VARIABLE UNKNOWN-INTENT
UNKNOWN-PROC UNKNOWN IMPLICIT-SAVE 0 0) (INTEGER 4 0 0 0 INTEGER ()) 0 0
() () 0 () () () 0 0)
13 'num_images' 'images_props' '' 1 ((VARIABLE UNKNOWN-INTENT
UNKNOWN-PROC UNKNOWN IMPLICIT-SAVE 0 0) (INTEGER 4 0 0 0 INTEGER ()) 0 0
() () 0 () () () 0 0)
14 'num_images_atoms' 'images_props' '' 1 ((VARIABLE UNKNOWN-INTENT
UNKNOWN-PROC UNKNOWN IMPLICIT-SAVE 0 0 ALLOCATABLE DIMENSION) (INTEGER 4
0 0 0 INTEGER ()) 0 0 () (1 0 DEFERRED () ()) 0 () () () 0 0)
15 'num_neighbors' 'images_props' '' 1 ((VARIABLE UNKNOWN-INTENT
UNKNOWN-PROC UNKNOWN IMPLICIT-SAVE 0 0 ALLOCATABLE DIMENSION) (INTEGER 4
0 0 0 INTEGER ()) 0 0 () (1 0 DEFERRED () ()) 0 () () () 0 0)
16 'raveled_neighborlists' 'images_props' '' 1 ((VARIABLE UNKNOWN-INTENT
UNKNOWN-PROC UNKNOWN IMPLICIT-SAVE 0 0 ALLOCATABLE DIMENSION) (INTEGER 4
0 0 0 INTEGER ()) 0 0 () (1 0 DEFERRED () ()) 0 () () () 0 0)
)

('actual_charges' 0 2 'actual_energies' 0 3 'actual_forces' 0 4
'atomic_charges' 0 5 'atomic_numbers' 0 6 'atomic_positions' 0 7
'elements_numbers' 0 8 'image_weights' 0 9 'images_props' 0 10 'num_atoms'
0 11 'num_elements' 0 12 'num_images' 0 13 'num_images_atoms' 0 14
'num_neighbors' 0 15 'raveled_neighborlists' 0 16)
